<svg height="24" width="24" viewBox="0 0 24 24">
   <path d="m 9.46,14 c -2.67,0 -8,1.33 -8,4 v 2 h 16 v -2 c 0,-2.67 -5.33,-4 -8,-4 m 0,-2 a 4,4 0 0 0 4,-4 4,4 0 0 0 -4,-4 4,4 0 0 0 -4,4 4,4 0 0 0 4,4 m 10,-2.41 -2.12,-2.13 -1.42,1.42 2.13,2.12 -2.13,2.12 1.42,1.42 2.12,-2.13 2.12,2.13 L 23,13.12 20.87,11 23,8.88 21.58,7.46 Z"/>
</svg>
