<svg height="24" width="24" viewBox="0 0 24 24">
   <path d="M 9,12 C 6.79,12 5,10.21 5,8 5,5.79 6.79,4 9,4 c 2.21,0 4,1.79 4,4 0,2.21 -1.79,4 -4,4 z"/>
   <path d="m 9,14 c 2.67,0 8,1.34 8,4 l 0,2 -16,0 0,-2 c 0,-2.66 5.33,-4 8,-4 z"/>
   <path d="m 15,10.04 0,2 4.5,0 -1.75,1.75 1.21,1.21 3.96,-3.96 -3.96,-3.96 -1.21,1.21 1.75,1.75 -4.5,0 z"/>
</svg>
